{"failedCount":1,"prefixedPath":"src\/test\/java\/resources\/getApi.feature","packageQualifiedName":"src.test.java.resources.getApi","loopIndex":-1,"relativePath":"src\/test\/java\/resources\/getApi.feature","scenarioResults":[{"sectionIndex":1,"stepResults":[{"result":{"nanos":300986500,"millis":300.9865,"status":"passed"},"step":{"background":true,"line":4,"prefix":"*","index":0,"text":"url 'https:\/\/reqres.in\/api'"}},{"result":{"nanos":21787300,"millis":21.7873,"status":"passed"},"step":{"background":true,"line":5,"prefix":"*","index":1,"text":"headers Accept = 'application\/json'"},"stepLog":"15:57:59.268 did not evaluate to map Accept = 'application\/json': [type: STRING, value: application\/json]\n"},{"result":{"nanos":951400,"millis":0.9514,"status":"passed"},"step":{"line":16,"prefix":"Given","index":0,"text":"path '\/users?page=2'"}},{"result":{"nanos":2342048600,"millis":2342.0486,"status":"passed"},"step":{"line":17,"prefix":"When","index":1,"text":"method GET"},"stepLog":"15:58:00.846 request:\n1 > GET https:\/\/reqres.in\/api\/users%3Fpage=2\n1 > Host: reqres.in\n1 > Connection: Keep-Alive\n1 > User-Agent: Apache-HttpClient\/4.5.13 (Java\/1.8.0_121)\n1 > Accept-Encoding: gzip,deflate\n\n\n15:58:01.531 response time in milliseconds: 676\n1 < 200\n1 < Date: Sat, 10 Jun 2023 14:57:59 GMT\n1 < Content-Type: application\/json; charset=utf-8\n1 < Transfer-Encoding: chunked\n1 < Connection: keep-alive\n1 < X-Powered-By: Express\n1 < Access-Control-Allow-Origin: *\n1 < Etag: W\/\"2c1-N6Rqerxquq2kgQhL51EiSg4x0R8\"\n1 < Via: 1.1 vegur\n1 < Cache-Control: max-age=14400\n1 < CF-Cache-Status: HIT\n1 < Age: 276\n1 < Report-To: {\"endpoints\":[{\"url\":\"https:\\\/\\\/a.nel.cloudflare.com\\\/report\\\/v3?s=ziVsa6luTM02q0T10ejLGF%2BSBYK9eZyfGohBH9CNN%2BuumfHADYGRMf50IGZm6SG8UgxyCp3TGz12eaXvULh8inNSb0byT5dlUpTSb0dJT8WbEthnQYCXHMftNQ%3D%3D\"}],\"group\":\"cf-nel\",\"max_age\":604800}\n1 < NEL: {\"success_fraction\":0,\"report_to\":\"cf-nel\",\"max_age\":604800}\n1 < Vary: Accept-Encoding\n1 < Server: cloudflare\n1 < CF-RAY: 7d52784d4f6f71d5-LHR\n{\"page\":1,\"per_page\":6,\"total\":12,\"total_pages\":2,\"data\":[{\"id\":1,\"name\":\"cerulean\",\"year\":2000,\"color\":\"#98B2D1\",\"pantone_value\":\"15-4020\"},{\"id\":2,\"name\":\"fuchsia rose\",\"year\":2001,\"color\":\"#C74375\",\"pantone_value\":\"17-2031\"},{\"id\":3,\"name\":\"true red\",\"year\":2002,\"color\":\"#BF1932\",\"pantone_value\":\"19-1664\"},{\"id\":4,\"name\":\"aqua sky\",\"year\":2003,\"color\":\"#7BC4C4\",\"pantone_value\":\"14-4811\"},{\"id\":5,\"name\":\"tigerlily\",\"year\":2004,\"color\":\"#E2583E\",\"pantone_value\":\"17-1456\"},{\"id\":6,\"name\":\"blue turquoise\",\"year\":2005,\"color\":\"#53B0AE\",\"pantone_value\":\"15-5217\"}],\"support\":{\"url\":\"https:\/\/reqres.in\/#support-heading\",\"text\":\"To keep ReqRes free, contributions towards server costs are appreciated!\"}}\n\n"},{"result":{"nanos":21300,"millis":0.0213,"status":"passed"},"step":{"line":18,"prefix":"Then","index":2,"text":"status 200"}},{"result":{"nanos":1921000,"errorMessage":"syntax error, expected '==' for match\nsrc\/test\/java\/resources\/getApi.feature:19","millis":1.921,"status":"failed"},"step":{"line":19,"prefix":"And","index":3,"text":"match response.data[0].name=='cerulean'"},"stepLog":"15:58:01.615 src\/test\/java\/resources\/getApi.feature:19\nAnd match response.data[0].name=='cerulean'\nsyntax error, expected '==' for match\nsrc\/test\/java\/resources\/getApi.feature:19\n"}],"line":15,"description":"","durationMillis":2667.7161,"failed":true,"error":"syntax error, expected '==' for match\nsrc\/test\/java\/resources\/getApi.feature:19","executorName":"main","name":"Get Demo2","startTime":1686409078867,"refId":"[2:15]","endTime":1686409081615,"exampleIndex":-1}],"callDepth":0,"name":"Get API demo","description":"","resultDate":"2023-06-10 03:58:01 PM","durationMillis":2667.7161,"passedCount":0}